I Tried To Use Machine Learning To Predict The March Madness Tournament And It Sort Of Failed. - Nolan Hemmett's GitHub Site
…
So, how does my model look? In training, my model is giving a 65% accuracy. Not great, not terrible.

## # A tibble: 63,800 × 17
##    .pred_class  game_id game_date  team_short_display_n…¹ opponent_short_displ…²
##    <fct>          <int> <date>     <chr>                  <chr>                 
##  1 L             4.01e8 2018-02-20 The Citadel            ETSU                  
##  2 L             4.01e8 2019-11-26 BYU                    Kansas                
##  3 L             4.01e8 2015-02-07 Troy                   Appalachian St        
##  4 L             4.01e8 2017-01-28 Kansas City            Bakersfield           
##  5 W             4.01e8 2022-02-19 Kennesaw St            Jacksonville          
##  6 W             4.01e8 2017-01-05 SE Missouri St         Tennessee St          
##  7 W             4.01e8 2018-11-28 N Illinois             Green Bay             
##  8 W             4.01e8 2016-02-01 Iona                   Saint Peter's         
##  9 L             4.01e8 2022-12-15 Presbyterian           Elon                  
## 10 W             4.01e8 2022-02-19 Samford                UNC Greensboro        
## # ℹ 63,790 more rows
## # ℹ abbreviated names: ¹​team_short_display_name, ²​opponent_short_display_name
## # ℹ 12 more variables: season <int>, team_rolling_ppp <dbl>,
## #   opponent_rolling_ppp <dbl>, team_rolling_total_rebounds <dbl>,
## #   opponent_rolling_total_rebounds <dbl>, team_rolling_field_goal_pct <dbl>,
## #   opponent_rolling_field_goal_pct <dbl>, team_rolling_fouls <dbl>,
## #   opponent_rolling_fouls <dbl>, team_rolling_player_value <dbl>, …
…
